Episodes — episodes • bakeoff
…
eliminated
A character string with the name of the bakers who left
a given episode, separated by commas.

    Source

    See
https://en.wikipedia.org/wiki/The_Great_British_Bake_Off#Format

    Examples

if (require('tibble')) {
  episodes
 }
#> # A tibble: 94 × 10
#>    series episode bakers_appeared bakers_out bakers_remaining star_bakers
#>     <dbl>   <dbl>           <int>      <int>            <int>       <int>
#>  1      1       1              10          2                8           0
#>  2      1       2               8          2                6           0
#>  3      1       3               6          1                5           0
#>  4      1       4               5          1                4           0
#>  5      1       5               4          1                3           0
#>  6      1       6               3          0                3           0
#>  7      2       1              12          1               11           1
#>  8      2       2              11          1               10           1
#>  9      2       3              10          2                8           1
#> 10      2       4               8          1                7           2
#> # … with 84 more rows, and 4 more variables: technical_winners <int>,
#> #   sb_name <chr>, winner_name <chr>, eliminated <chr>
…
